{
  "language": "Solidity",
  "settings": {
    "remappings": [
      "ds/=contracts/ds/"
    ],
    "outputSelection": {
      "AccessControl.sol": {
        "*": [
          "metadata",
          "abi",
          "evm.bytecode",
          "evm.sourceMap"
        ]
      },
      "Gate.sol": {
        "*": [
          "metadata",
          "abi",
          "evm.bytecode",
          "evm.sourceMap"
        ]
      }
    }
  },
  "sources": {
    "AccessControl.sol": {
      "urls": [
        "contracts/AccessControl.sol"
      ]
    },
    "Gate.sol": {
      "urls": [
        "contracts/Gate.sol"
      ]
    }
  }
}
