@startuml

title KYCRequest State Machine

[*] --> Submitted : Customer submits KYC request
Submitted --> DocumentsVerified: Admin verifies KYC documents and succeed
Submitted --> DocumentsNotVerified: Admin verifies KYC documents and fail
DocumentsNotVerified --> Submitted: Customer resubmits the KYC documents
DocumentsVerified --> MessageSigned: Customer signs the message and submits
MessageSigned --> AddressVerified: System verifies the signing and succeed
MessageSigned --> AddressNotVerified: System verifies the signing and fail
AddressNotVerified --> MessageSigned: Customer signs the message again and submits
AddressVerified --> KYCMarked: Mark the Eth Address with KYC Flag
KYCMarked --> [*]
@enduml
