@startuml
title Asset Gateway KYC Process

actor "Customer" as c
actor "AGW admin" as adm
database "AGW specific\nKYC contract" as agw

== KYC ==

c -> adm: Submits KYC Approval Request
adm --> adm: Verifies KYC documents
adm --> c: Asks Customer to verify Eth Address by sign a message
c --> adm: Signs the message and submits
adm --> adm: Verifies the signing
adm -> agw: Mark the Eth Address with KYC Flag (Either None,Full or Boundary)

@enduml
